{
  "aspects": ["$pre-aspect-2", "$pre-aspect-0"],
  "bucket": "$bucket",
  "component": "wiagl-components/Preamble/Tradeoff",
  "instructions": "$decision_instructions",
  "text": "$_walkthrough-9",
  "triple_code": "pre1",
  "skip": {
    "or": [
      {
        "===": [
          "$_skip-9",
          true
        ]
      },
      {
        "===" : ["$rating_pre0_skip", "$skipRatingText"] 
      },{
        "===" : ["$rating_pre2_skip", "$skipRatingText"] 
      }
    ] 
  }
}
