{
  "aspects": [
    {
      "code": 10,
      "color": "$color_10",
      "rating": "$rating_10",
      "text": "$text_10"
    },
    {
      "code": 9,
      "color": "$color_9",
      "rating": "$rating_9",
      "text": "$text_9"
    },
    {
      "code": 11,
      "color": "$color_11",
      "rating": "$rating_11",
      "text": "$text_11"
    }
  ],
  "bucket": "$bucket_9",
  "component": "wiagl-components/Tradeoff",
  "scale": "$scale",
  "should_decrease": "$should_decrease",
  "triple_code": 3,
  "skip": {
    "or": [
      {
        "===" : ["$rating_9_skip", "$skipRatingText"] 
      },{
        "===" : ["$rating_10_skip", "$skipRatingText"] 
      },{
        "===" : ["$rating_11_skip", "$skipRatingText"] 
      }
    ] 
  }
}