{
  "component": "packs-components/Randomize",
  "seedConstant":4,
  "seed": "$workerId",
  "states": [
    {
      "reminder": "$alwaysShowReminder",
      "should_decrease": false,
      "weight": 4
    },
    {
      "reminder": "$alwaysShowReminder",
      "should_decrease": true,
      "weight": 4
    },
    {
      "reminder": "$notNeverShowReminder",
      "should_decrease": true,
      "weight": 1
    },
    {
      "reminder": "$notNeverShowReminder",
      "should_decrease": false,
      "weight": 1
    }
  ]
}