{
    "component": "packs-components/Form",
    "module_name":"Locations",
    "condition": {
      "countryborn": {
        "==": [
          "$usborn",
          "No"
        ]
      },
      "stateborn": {
        "==": [
          "$usborn",
          "Yes"
        ]
      },
      "growup_state": {
        "==": [
          "$growup_us",
          "Yes"
        ]
      },
      "growup_country": {
        "==": [
          "$growup_us",
          "No"
        ]
      }
    },
    "n_unanswered_message": "$unanswered_message",
    "schema": {
      "properties": {
     
        "countryborn": {
          "enum": [
            "Afghanistan",
            "Åland Islands",
            "Albania",
            "Algeria",
            "American Samoa",
            "Andorra",
            "Angola",
            "Anguilla",
            "Antarctica",
            "Antigua and Barbuda",
            "Argentina",
            "Armenia",
            "Aruba",
            "Australia",
            "Austria",
            "Azerbaijan",
            "Bahamas",
            "Bahrain",
            "Bangladesh",
            "Barbados",
            "Belarus",
            "Belgium",
            "Belize",
            "Benin",
            "Bermuda",
            "Bhutan",
            "Bolivia",
            "Bosnia and Herzegovina",
            "Botswana",
            "Bouvet Island",
            "Brazil",
            "British Indian Ocean Territory",
            "Brunei Darussalam",
            "Bulgaria",
            "Burkina Faso",
            "Burundi",
            "Cambodia",
            "Cameroon",
            "Canada",
            "Cape Verde",
            "Cayman Islands",
            "Central African Republic",
            "Chad",
            "Chile",
            "China",
            "Christmas Island",
            "Cocos (Keeling) Islands",
            "Colombia",
            "Comoros",
            "Congo",
            "Congo, The Democratic Republic Of The",
            "Cook Islands",
            "Costa Rica",
            "Cote D'ivoire",
            "Croatia",
            "Cuba",
            "Cyprus",
            "Czech Republic",
            "Denmark",
            "Djibouti",
            "Dominica",
            "Dominican Republic",
            "Ecuador",
            "Egypt",
            "El Salvador",
            "Equatorial Guinea",
            "Eritrea",
            "Estonia",
            "Ethiopia",
            "Falkland Islands (Malvinas)",
            "Faroe Islands",
            "Fiji",
            "Finland",
            "France",
            "French Guiana",
            "French Polynesia",
            "French Southern Territories",
            "Gabon",
            "Gambia",
            "Georgia",
            "Germany",
            "Ghana",
            "Gibraltar",
            "Greece",
            "Greenland",
            "Grenada",
            "Guadeloupe",
            "Guam",
            "Guatemala",
            "Guernsey",
            "Guinea",
            "Guinea-bissau",
            "Guyana",
            "Haiti",
            "Heard Island and Mcdonald Islands",
            "Holy See (Vatican City State)",
            "Honduras",
            "Hong Kong",
            "Hungary",
            "Iceland",
            "India",
            "Indonesia",
            "Iran, Islamic Republic Of",
            "Iraq",
            "Ireland",
            "Isle Of Man",
            "Israel",
            "Italy",
            "Jamaica",
            "Japan",
            "Jersey",
            "Jordan",
            "Kazakhstan",
            "Kenya",
            "Kiribati",
            "Korea, Democratic People's Republic Of",
            "Korea, Republic Of",
            "Kuwait",
            "Kyrgyzstan",
            "Lao People's Democratic Republic (Laos)",
            "Latvia",
            "Lebanon",
            "Lesotho",
            "Liberia",
            "Libyan Arab Jamahiriya",
            "Liechtenstein",
            "Lithuania",
            "Luxembourg",
            "Macao",
            "Macedonia, The Former Yugoslav Republic Of",
            "Madagascar",
            "Malawi",
            "Malaysia",
            "Maldives",
            "Mali",
            "Malta",
            "Marshall Islands",
            "Martinique",
            "Mauritania",
            "Mauritius",
            "Mayotte",
            "Mexico",
            "Micronesia, Federated States Of",
            "Moldova, Republic Of",
            "Monaco",
            "Mongolia",
            "Montenegro",
            "Montserrat",
            "Morocco",
            "Mozambique",
            "Myanmar",
            "Namibia",
            "Nauru",
            "Nepal",
            "Netherlands",
            "Netherlands Antilles",
            "New Caledonia",
            "New Zealand",
            "Nicaragua",
            "Niger",
            "Nigeria",
            "Niue",
            "Norfolk Island",
            "Northern Mariana Islands",
            "Norway",
            "Oman",
            "Pakistan",
            "Palau",
            "Palestinian Territory, Occupied",
            "Panama",
            "Papua New Guinea",
            "Paraguay",
            "Peru",
            "Philippines",
            "Pitcairn",
            "Poland",
            "Portugal",
            "Puerto Rico",
            "Qatar",
            "Reunion",
            "Romania",
            "Russian Federation",
            "Rwanda",
            "Saint Helena",
            "Saint Kitts and Nevis",
            "Saint Lucia",
            "Saint Pierre and Miquelon",
            "Saint Vincent and The Grenadines",
            "Samoa",
            "San Marino",
            "Sao Tome and Principe",
            "Saudi Arabia",
            "Senegal",
            "Serbia",
            "Seychelles",
            "Sierra Leone",
            "Singapore",
            "Slovakia",
            "Slovenia",
            "Solomon Islands",
            "Somalia",
            "South Africa",
            "South Georgia and The South Sandwich Islands",
            "Spain",
            "Sri Lanka",
            "Sudan",
            "Suriname",
            "Svalbard and Jan Mayen",
            "Swaziland",
            "Sweden",
            "Switzerland",
            "Syrian Arab Republic",
            "Taiwan, Republic Of China",
            "Tajikistan",
            "Tanzania, United Republic Of",
            "Thailand",
            "Timor-leste",
            "Togo",
            "Tokelau",
            "Tonga",
            "Trinidad and Tobago",
            "Tunisia",
            "Turkey",
            "Turkmenistan",
            "Turks and Caicos Islands",
            "Tuvalu",
            "Uganda",
            "Ukraine",
            "United Arab Emirates",
            "United Kingdom",
            "United States",
            "United States Minor Outlying Islands",
            "Uruguay",
            "Uzbekistan",
            "Vanuatu",
            "Venezuela",
            "Viet Nam",
            "Virgin Islands, British",
            "Virgin Islands, U.S.",
            "Wallis and Futuna",
            "Western Sahara",
            "Yemen",
            "Zambia",
            "Zimbabwe",
            "Other"
          ],
          "title": "In what country were you born?",
          "type": "string"
        },
        "growup_country": {
          "enum": [
            "Afghanistan",
            "Åland Islands",
            "Albania",
            "Algeria",
            "American Samoa",
            "Andorra",
            "Angola",
            "Anguilla",
            "Antarctica",
            "Antigua and Barbuda",
            "Argentina",
            "Armenia",
            "Aruba",
            "Australia",
            "Austria",
            "Azerbaijan",
            "Bahamas",
            "Bahrain",
            "Bangladesh",
            "Barbados",
            "Belarus",
            "Belgium",
            "Belize",
            "Benin",
            "Bermuda",
            "Bhutan",
            "Bolivia",
            "Bosnia and Herzegovina",
            "Botswana",
            "Bouvet Island",
            "Brazil",
            "British Indian Ocean Territory",
            "Brunei Darussalam",
            "Bulgaria",
            "Burkina Faso",
            "Burundi",
            "Cambodia",
            "Cameroon",
            "Canada",
            "Cape Verde",
            "Cayman Islands",
            "Central African Republic",
            "Chad",
            "Chile",
            "China",
            "Christmas Island",
            "Cocos (Keeling) Islands",
            "Colombia",
            "Comoros",
            "Congo",
            "Congo, The Democratic Republic Of The",
            "Cook Islands",
            "Costa Rica",
            "Cote D'ivoire",
            "Croatia",
            "Cuba",
            "Cyprus",
            "Czech Republic",
            "Denmark",
            "Djibouti",
            "Dominica",
            "Dominican Republic",
            "Ecuador",
            "Egypt",
            "El Salvador",
            "Equatorial Guinea",
            "Eritrea",
            "Estonia",
            "Ethiopia",
            "Falkland Islands (Malvinas)",
            "Faroe Islands",
            "Fiji",
            "Finland",
            "France",
            "French Guiana",
            "French Polynesia",
            "French Southern Territories",
            "Gabon",
            "Gambia",
            "Georgia",
            "Germany",
            "Ghana",
            "Gibraltar",
            "Greece",
            "Greenland",
            "Grenada",
            "Guadeloupe",
            "Guam",
            "Guatemala",
            "Guernsey",
            "Guinea",
            "Guinea-bissau",
            "Guyana",
            "Haiti",
            "Heard Island and Mcdonald Islands",
            "Holy See (Vatican City State)",
            "Honduras",
            "Hong Kong",
            "Hungary",
            "Iceland",
            "India",
            "Indonesia",
            "Iran, Islamic Republic Of",
            "Iraq",
            "Ireland",
            "Isle Of Man",
            "Israel",
            "Italy",
            "Jamaica",
            "Japan",
            "Jersey",
            "Jordan",
            "Kazakhstan",
            "Kenya",
            "Kiribati",
            "Korea, Democratic People's Republic Of",
            "Korea, Republic Of",
            "Kuwait",
            "Kyrgyzstan",
            "Lao People's Democratic Republic (Laos)",
            "Latvia",
            "Lebanon",
            "Lesotho",
            "Liberia",
            "Libyan Arab Jamahiriya",
            "Liechtenstein",
            "Lithuania",
            "Luxembourg",
            "Macao",
            "Macedonia, The Former Yugoslav Republic Of",
            "Madagascar",
            "Malawi",
            "Malaysia",
            "Maldives",
            "Mali",
            "Malta",
            "Marshall Islands",
            "Martinique",
            "Mauritania",
            "Mauritius",
            "Mayotte",
            "Mexico",
            "Micronesia, Federated States Of",
            "Moldova, Republic Of",
            "Monaco",
            "Mongolia",
            "Montenegro",
            "Montserrat",
            "Morocco",
            "Mozambique",
            "Myanmar",
            "Namibia",
            "Nauru",
            "Nepal",
            "Netherlands",
            "Netherlands Antilles",
            "New Caledonia",
            "New Zealand",
            "Nicaragua",
            "Niger",
            "Nigeria",
            "Niue",
            "Norfolk Island",
            "Northern Mariana Islands",
            "Norway",
            "Oman",
            "Pakistan",
            "Palau",
            "Palestinian Territory, Occupied",
            "Panama",
            "Papua New Guinea",
            "Paraguay",
            "Peru",
            "Philippines",
            "Pitcairn",
            "Poland",
            "Portugal",
            "Puerto Rico",
            "Qatar",
            "Reunion",
            "Romania",
            "Russian Federation",
            "Rwanda",
            "Saint Helena",
            "Saint Kitts and Nevis",
            "Saint Lucia",
            "Saint Pierre and Miquelon",
            "Saint Vincent and The Grenadines",
            "Samoa",
            "San Marino",
            "Sao Tome and Principe",
            "Saudi Arabia",
            "Senegal",
            "Serbia",
            "Seychelles",
            "Sierra Leone",
            "Singapore",
            "Slovakia",
            "Slovenia",
            "Solomon Islands",
            "Somalia",
            "South Africa",
            "South Georgia and The South Sandwich Islands",
            "Spain",
            "Sri Lanka",
            "Sudan",
            "Suriname",
            "Svalbard and Jan Mayen",
            "Swaziland",
            "Sweden",
            "Switzerland",
            "Syrian Arab Republic",
            "Taiwan, Republic Of China",
            "Tajikistan",
            "Tanzania, United Republic Of",
            "Thailand",
            "Timor-leste",
            "Togo",
            "Tokelau",
            "Tonga",
            "Trinidad and Tobago",
            "Tunisia",
            "Turkey",
            "Turkmenistan",
            "Turks and Caicos Islands",
            "Tuvalu",
            "Uganda",
            "Ukraine",
            "United Arab Emirates",
            "United Kingdom",
            "United States",
            "United States Minor Outlying Islands",
            "Uruguay",
            "Uzbekistan",
            "Vanuatu",
            "Venezuela",
            "Viet Nam",
            "Virgin Islands, British",
            "Virgin Islands, U.S.",
            "Wallis and Futuna",
            "Western Sahara",
            "Yemen",
            "Zambia",
            "Zimbabwe",
            "Other"
          ],
          "title": "In what country did you grow up? That is, in what country did you spend most of your time during the first 18 years of your life?",
          "type": "string"
        },
        "stateborn": {
          "enum": [
            "Alabama (AL)",
            "Alaska (AK)",
            "Arizona (AZ)",
            "Arkansas (AR)",
            "California (CA)",
            "Colorado (CO)",
            "Connecticut (CT)",
            "Delaware (DE)",
            "Florida (FL)",
            "Georgia (GA)",
            "Hawaii (HI)",
            "Idaho (ID)",
            "Illinois (IL)",
            "Indiana (IN)",
            "Iowa (IA)",
            "Kansas (KS)",
            "Kentucky (KY)",
            "Louisiana (LA)",
            "Maine (ME)",
            "Maryland (MD)",
            "Massachusetts (MA)",
            "Michigan (MI)",
            "Minnesota (MN)",
            "Mississippi (MS)",
            "Missouri (MO)",
            "Montana (MT)",
            "Nebraska (NE)",
            "Nevada (NV)",
            "New Hampshire (NH)",
            "New Jersey (NJ)",
            "New Mexico (NM)",
            "New York (NY)",
            "North Carolina (NC)",
            "North Dakota (ND)",
            "Ohio (OH)",
            "Oklahoma (OK)",
            "Oregon (OR)",
            "Pennsylvania (PA)",
            "Rhode Island (RI)",
            "South Carolina (SC)",
            "South Dakota (SD)",
            "Tennessee (TN)",
            "Texas (TX)",
            "Utah (UT)",
            "Vermont (VT)",
            "Virginia (VA)",
            "Washington (WA)",
            "West Virginia (WV)",
            "Wisconsin (WI)",
            "Wyoming (WY)",
            "Washington, D.C.",
            "Puerto Rico"
          ],
          "title": "In what state were you born?",
          "type": "string"
        },
        "growup_state": {
          "enum": [
            "Alabama (AL)",
            "Alaska (AK)",
            "Arizona (AZ)",
            "Arkansas (AR)",
            "California (CA)",
            "Colorado (CO)",
            "Connecticut (CT)",
            "Delaware (DE)",
            "Florida (FL)",
            "Georgia (GA)",
            "Hawaii (HI)",
            "Idaho (ID)",
            "Illinois (IL)",
            "Indiana (IN)",
            "Iowa (IA)",
            "Kansas (KS)",
            "Kentucky (KY)",
            "Louisiana (LA)",
            "Maine (ME)",
            "Maryland (MD)",
            "Massachusetts (MA)",
            "Michigan (MI)",
            "Minnesota (MN)",
            "Mississippi (MS)",
            "Missouri (MO)",
            "Montana (MT)",
            "Nebraska (NE)",
            "Nevada (NV)",
            "New Hampshire (NH)",
            "New Jersey (NJ)",
            "New Mexico (NM)",
            "New York (NY)",
            "North Carolina (NC)",
            "North Dakota (ND)",
            "Ohio (OH)",
            "Oklahoma (OK)",
            "Oregon (OR)",
            "Pennsylvania (PA)",
            "Rhode Island (RI)",
            "South Carolina (SC)",
            "South Dakota (SD)",
            "Tennessee (TN)",
            "Texas (TX)",
            "Utah (UT)",
            "Vermont (VT)",
            "Virginia (VA)",
            "Washington (WA)",
            "West Virginia (WV)",
            "Wisconsin (WI)",
            "Wyoming (WY)",
            "Washington, D.C.",
            "Puerto Rico"
          ],
          "title": "In what state did you grow up? That is, in what state did you spend most of your time during the first 18 years of your life?",
          "type": "string"
        },
        "usborn": {
          "enum": [
            "Yes",
            "No"
          ],
          "title": "Were you born in the United States?",
          "type": "string"
        },
        "growup_us": {
          "enum": [
            "Yes",
            "No"
          ],
          "title": "Did you grow up in the United States?",
          "type": "string"
        },
          "statereside": {
          "enum": [
            "Alabama (AL)",
            "Alaska (AK)",
            "Arizona (AZ)",
            "Arkansas (AR)",
            "California (CA)",
            "Colorado (CO)",
            "Connecticut (CT)",
            "Delaware (DE)",
            "Florida (FL)",
            "Georgia (GA)",
            "Hawaii (HI)",
            "Idaho (ID)",
            "Illinois (IL)",
            "Indiana (IN)",
            "Iowa (IA)",
            "Kansas (KS)",
            "Kentucky (KY)",
            "Louisiana (LA)",
            "Maine (ME)",
            "Maryland (MD)",
            "Massachusetts (MA)",
            "Michigan (MI)",
            "Minnesota (MN)",
            "Mississippi (MS)",
            "Missouri (MO)",
            "Montana (MT)",
            "Nebraska (NE)",
            "Nevada (NV)",
            "New Hampshire (NH)",
            "New Jersey (NJ)",
            "New Mexico (NM)",
            "New York (NY)",
            "North Carolina (NC)",
            "North Dakota (ND)",
            "Ohio (OH)",
            "Oklahoma (OK)",
            "Oregon (OR)",
            "Pennsylvania (PA)",
            "Rhode Island (RI)",
            "South Carolina (SC)",
            "South Dakota (SD)",
            "Tennessee (TN)",
            "Texas (TX)",
            "Utah (UT)",
            "Vermont (VT)",
            "Virginia (VA)",
            "Washington (WA)",
            "West Virginia (WV)",
            "Wisconsin (WI)",
            "Wyoming (WY)",
            "Washington, D.C.",
            "Puerto Rico"
          ],
          "title": "In what state are you currently residing?",
          "type": "string"
        }
      },
      "title": "More background questions",
      "type": "object"
    },
    "uiSchema": {
      "ui:order": [
        "usborn",
        "stateborn",
        "countryborn",
        "growup_us",
        "growup_state",
        "growup_country",
        "statereside"
      ]
    }
  }