{
    "component": "packs-components/Form",
    "module_name":"Grit",
    "n_unanswered_message": "$unanswered_message",
    "schema": {
        "properties": {
            "grit_1": {
                "enum": [
                    "1 – Very much like me",
                    "2 – Mostly like me",
                    "3 – Somewhat like me",
                    "4 – Not much like me",
                    "5 – Not like me at all"
                ],
                "title": "1: I have overcome setbacks to conquer an important challenge.",
                "type": "string",
                "midInstructions": "Here are a number of statements that may or may not apply to you. For the most accurate score, when responding, think of how you compare to most people – not just the people you know well, but most people in the world. There are no right or wrong answers, so just answer honestly! \n\nResponses: \n\n1 – Very much like me \n\n2 – Mostly like me \n\n3 – Somewhat like me \n\n4 – Not much like me\n\n5 – Not like me at all"
            },
            "grit_2": {
                "enum": [
                    "1 – Very much like me",
                    "2 – Mostly like me",
                    "3 – Somewhat like me",
                    "4 – Not much like me",
                    "5 – Not like me at all"
                ],
                "title": "2: New ideas and projects sometimes distract me from previous ones.",
                "type": "string"
            },
            "grit_3": {
                "enum": [
                    "1 – Very much like me",
                    "2 – Mostly like me",
                    "3 – Somewhat like me",
                    "4 – Not much like me",
                    "5 – Not like me at all"
                ],
                "title": "3: My interests change from year to year.",
                "type": "string"
            },
            "grit_4": {
                "enum": [
                    "1 – Very much like me",
                    "2 – Mostly like me",
                    "3 – Somewhat like me",
                    "4 – Not much like me",
                    "5 – Not like me at all"
                ],
                "title": "4: Setbacks don’t discourage me.",
                "type": "string"
            },
            "grit_5": {
                "enum": [
                    "1 – Very much like me",
                    "2 – Mostly like me",
                    "3 – Somewhat like me",
                    "4 – Not much like me",
                    "5 – Not like me at all"
                ],
                "title": "5: I have been obsessed with a certain idea or project for a short time but later lost interest.",
                "type": "string"
            },
            "grit_6": {
                "enum": [
                    "1 – Very much like me",
                    "2 – Mostly like me",
                    "3 – Somewhat like me",
                    "4 – Not much like me",
                    "5 – Not like me at all"
                ],
                "title": "6: I am a hard worker.",
                "type": "string"
            },
            "grit_7": {
                "enum": [
                    "1 – Very much like me",
                    "2 – Mostly like me",
                    "3 – Somewhat like me",
                    "4 – Not much like me",
                    "5 – Not like me at all"
                ],
                "title": "7: I often set a goal but later choose to pursue a different one.",
                "type": "string"
            },
            "grit_8": {
                "enum": [
                    "1 – Very much like me",
                    "2 – Mostly like me",
                    "3 – Somewhat like me",
                    "4 – Not much like me",
                    "5 – Not like me at all"
                ],
                "title": "8: I have difficulty maintaining my focus on projects that take more than a few months to complete.",
                "type": "string"
            },
            "grit_9": {
                "enum": [
                    "1 – Very much like me",
                    "2 – Mostly like me",
                    "3 – Somewhat like me",
                    "4 – Not much like me",
                    "5 – Not like me at all"
                ],
                "title": "9: I finish whatever I begin.",
                "type": "string"
            },
            "grit_10": {
                "enum": [
                    "1 – Very much like me",
                    "2 – Mostly like me",
                    "3 – Somewhat like me",
                    "4 – Not much like me",
                    "5 – Not like me at all"
                ],
                "title": "10: I have achieved a goal that took years of work.",
                "type": "string"
            },
            "grit_11": {
                "enum": [
                    "1 – Very much like me",
                    "2 – Mostly like me",
                    "3 – Somewhat like me",
                    "4 – Not much like me",
                    "5 – Not like me at all"
                ],
                "title": "11: I become interested in new pursuits every few months.",
                "type": "string"
            },
            "grit_12": {
                "enum": [
                    "1 – Very much like me",
                    "2 – Mostly like me",
                    "3 – Somewhat like me",
                    "4 – Not much like me",
                    "5 – Not like me at all"
                ],
                "title": "12: I am diligent.",
                "type": "string"
            }
        },
        "title": "",
        "type": "object"
    },
    "uiSchema": {
        "grit_1": {
            "ui:widget": "select"
          },
          "grit_2": {
            "ui:widget": "select"
          },
          "grit_3": {
            "ui:widget": "select"
          },
          "grit_4": {
            "ui:widget": "select"
          },
          "grit_5": {
            "ui:widget": "select"
          },
          "grit_6": {
            "ui:widget": "select"
          },
          "grit_7": {
            "ui:widget": "select"
          },
          "grit_8": {
            "ui:widget": "select"
          },
          "grit_9": {
            "ui:widget": "select"
          },
          "grit_10": {
            "ui:widget": "select"
          },
          "grit_11": {
            "ui:widget": "select"
          },
          "grit_12": {
            "ui:widget": "select"
          },
        "ui:order": [
            "grit_1",
            "grit_2",
            "grit_3",
            "grit_4",
            "grit_5",
            "grit_6",
            "grit_7",
            "grit_8",
            "grit_9",
            "grit_10",
            "grit_11",
            "grit_12"
        ]
    }
}