{
    "component": "packs-components/Form",
    "module_name":"Trump2",
    "n_unanswered_message": "$unanswered_message",
    "schema": {
      "properties": {
        "thermometer": {
          "md": "How would you rate Donald Trump ?",
          "type": "integer"
        },
          "election_stolen": {
            "enum": [
              "Joe Biden definitely won", 
              "Joe Biden probably won",
              "Donald Trump probably won", 
              "Donald Trump definitely won"
            ],
            "title":"As you may know, Donald Trump contested the results of the 2020 election through legal challenges in various states and the Supreme Court. Those challenges were not successful. Who do you think won the 2020 election--that is, who received the most votes cast by eligible voters in enough states to win the election?",
            "type":"string"
          }
          
      },
      "type": "object"
    },
    "uiSchema": {
      "thermometer": {
        "ui:widget": "thermometer"
      },
        "ui:order": ["election_stolen","thermometer" ]
      }
  }