{
  "component": "packs-components/Randomize",
  "seed": "$workerId",
  "states": [
    {
      "focus_0": "Words saying which aspects of life were changing",
      "focus_1": "Amount each aspect was changing"
    },
    {
      "focus_0": "Amount each aspect was changing",
      "focus_1": "Words saying which aspects of life were changing"
    }
  ]
}