{
  "buttonText": false,
  "lastScreen": true,
  "component": "packs-components/Markdown",
  "source": "# Thank you!\n\nThanks for completing our survey! Please copy the following code (including the \"-\") to submit the HIT on MTurk: \n**```${key}```**"
}
